{
  "project_info": {
    "project_number": "108954777421",
    "project_id": "imperialdaycare-1ceb3",
    "storage_bucket": "imperialdaycare-1ceb3.appspot.com"
  },
  "client": [
    {
      "client_info": {
        "mobilesdk_app_id": "1:108954777421:android:9a5e488d8d2f074453a904",
        "android_client_info": {
          "package_name": "com.chuyinzki.jesusvillegas3.imperialdaycare"
        }
      },
      "oauth_client": [
        {
          "client_id": "108954777421-bj8vfo6qbus12oetsvraad4dlkop5nrr.apps.googleusercontent.com",
          "client_type": 3
        }
      ],
      "api_key": [
        {
          "current_key": "AIzaSyB3RxQ9rrQPwAw2EfcS3T2pm_6sNd2sCeo"
        }
      ],
      "services": {
        "appinvite_service": {
          "other_platform_oauth_client": [
            {
              "client_id": "108954777421-bj8vfo6qbus12oetsvraad4dlkop5nrr.apps.googleusercontent.com",
              "client_type": 3
            }
          ]
        }
      }
    }
  ],
  "configuration_version": "1"
}